{
    "_id": "580dfe091345dd5f5522c28a",
    "index": 8,
    "guid": "4bfc4fd2-21f4-460a-ab35-e91262669d32",
    "isActive": false,
    "balance": "$2,861.69",
    "picture": "http://placehold.it/32x32",
    "age": 25,
    "eyeColor": "green",
    "name": "Clarke Lawrence",
    "gender": "male",
    "company": "HOMELUX",
    "email": "clarkelawrence@homelux.com",
    "phone": "+1 (916) 549-2885",
    "address": "275 Beverley Road, Mulberry, Minnesota, 8740",
    "about": "Eu ullamco ea et sunt minim in cupidatat irure laboris est dolore voluptate. Occaecat incididunt magna pariatur aute dolor qui magna. Sit esse dolor ex exercitation et dolore consequat pariatur irure mollit amet ex. Pariatur amet cupidatat ullamco qui cillum do magna eiusmod. Cillum tempor quis in elit. Anim qui laboris non ad nulla qui nostrud esse.\r\n",
    "registered": "2014-11-14T05:32:03 -03:00",
    "latitude": 71.679119,
    "longitude": -84.137241,
    "tags": [
      "dolor",
      "Lorem",
      "sint",
      "incididunt",
      "laborum",
      "laborum",
      "aute"
    ],
    "friends": [
      {
        "id": 0,
        "name": "Joanne Hanson"
      },
      {
        "id": 1,
        "name": "Dolly Shepherd"
      },
      {
        "id": 2,
        "name": "Connie Griffith"
      }
    ],
    "greeting": "Hello, Clarke Lawrence! You have 3 unread messages.",
    "favoriteFruit": "strawberry"
     Hello all of POAS. This is Nguyen Branch	
     Write something on step 5		
  }
